Quantium Virtual Internship - Retail Strategy and Analytics - Task 1
…
Thats better. Now, lets look at the number of transaction lines over time to see if there are any obvious data issues such as missing data.

#### Create a summary of transaction count by date
transactions_by_date <- transactionData %>%
  group_by(DATE) %>%
  summarise(count = n())
transactions_by_date

## # A tibble: 364 x 2
##    DATE       count
##    <date>     <int>
##  1 2018-07-01   663
##  2 2018-07-02   650
##  3 2018-07-03   674
##  4 2018-07-04   669
##  5 2018-07-05   660
##  6 2018-07-06   711
##  7 2018-07-07   695
##  8 2018-07-08   653
##  9 2018-07-09   692
## 10 2018-07-10   650
## # ... with 354 more rows
…
